{
  "name": "uw-sheet",
  "title": "Character Sheet for Uncharted Worlds",
  "description": "A Character Sheet template for Uncharted Worlds. Made for worldbuilding system.",
  "author": "spidamoo",
  "version": "1.1.4",
  "minimumCoreVersion": "0.6.2",
  "compatibleCoreVersion": "0.6.2",
  "scripts": ["./uw-sheet.js", "./item-sheet.js"],
  "systems": ["worldbuilding"],
  "manifest": "https://gitlab.com/spidamoo/foundry-uw-sheet/-/raw/master/module.json",
  "download": "https://gitlab.com/spidamoo/foundry-uw-sheet/-/raw/master/uw-sheet.zip"
}